;---------------------------------------------------------------------
; Civil War: Copyright (c) 1994-2001, Steven Green (acw@greenius.co.uk)
; This Software is subject to the GNU General Public License.  
; For License information see the file COPYING in the root directory of the project.
; For more information see the file README.
;
;---------------------------------------------------------------------
; $Id$
;----------------------------------------------------------------------
;
; 	Vertical refreash header
;
;----------------------------------------------------------------------
;
; $Log$
; Revision 1.1  2001/03/15 15:18:13  greenius
; Renamed files to lower case
;
; Revision 1.1  2001/03/11 00:58:50  greenius
; Added to sourceforge
;
;
;----------------------------------------------------------------------

;----------------------------------------------------------
; Specify global function


	public awaitVerticalBlank_
